{
  "project_info": {
    "project_number": "456980812784",
    "firebase_url": "https://securityhubuvosamara.firebaseio.com",
    "project_id": "securityhubuvosamara",
    "storage_bucket": "securityhubuvosamara.appspot.com"
  },
  "client": [
    {
      "client_info": {
        "mobilesdk_app_id": "1:456980812784:android:2075f8e372c6e998",
        "android_client_info": {
          "package_name": "uvosmr.sh"
        }
      },
      "oauth_client": [
        {
          "client_id": "456980812784-6p5lmctqmpi0hkm2ln2avsj52gcq6llc.apps.googleusercontent.com",
          "client_type": 3
        }
      ],
      "api_key": [
        {
          "current_key": "AIzaSyCgoiN7qixmbcQ7svX1CC7tGbNMnU4GOSA"
        }
      ],
      "services": {
        "appinvite_service": {
          "other_platform_oauth_client": [
            {
              "client_id": "456980812784-6p5lmctqmpi0hkm2ln2avsj52gcq6llc.apps.googleusercontent.com",
              "client_type": 3
            }
          ]
        }
      }
    }
  ],
  "configuration_version": "1"
}