{
  "project_info": {
    "project_number": "857329008641",
    "firebase_url": "https://securityhubalarm.firebaseio.com",
    "project_id": "securityhubalarm",
    "storage_bucket": "securityhubalarm.appspot.com"
  },
  "client": [
    {
      "client_info": {
        "mobilesdk_app_id": "1:857329008641:android:c0fa90391f6e9d95",
        "android_client_info": {
          "package_name": "alarm.sh"
        }
      },
      "oauth_client": [
        {
          "client_id": "857329008641-3p0eb544smj1k23lh1364cud87orhe1i.apps.googleusercontent.com",
          "client_type": 3
        }
      ],
      "api_key": [
        {
          "current_key": "AIzaSyCLBrXf4heuKO-lRoPGFDoZMrAjrMvxazA"
        }
      ],
      "services": {
        "analytics_service": {
          "status": 1
        },
        "appinvite_service": {
          "status": 1,
          "other_platform_oauth_client": []
        },
        "ads_service": {
          "status": 2
        }
      }
    }
  ],
  "configuration_version": "1"
}